{
  "project_info": {
    "project_number": "306156687042",
    "project_id": "cookbook-bb297",
    "storage_bucket": "cookbook-bb297.appspot.com"
  },
  "client": [
    {
      "client_info": {
        "mobilesdk_app_id": "1:306156687042:android:d2c5f96b2998bc7478355b",
        "android_client_info": {
          "package_name": "com.example.project_app_cookbook"
        }
      },
      "oauth_client": [
        {
          "client_id": "306156687042-u0n6ljh0453fupu1uqn4g36128kn1rrf.apps.googleusercontent.com",
          "client_type": 1,
          "android_info": {
            "package_name": "com.example.project_app_cookbook",
            "certificate_hash": "c1f5c77dfc346bc30b967e4e3b7ba1d516c76b90"
          }
        },
        {
          "client_id": "306156687042-pt3ebf7satqr35tplt2muqk78a9slqeb.apps.googleusercontent.com",
          "client_type": 3
        }
      ],
      "api_key": [
        {
          "current_key": "AIzaSyAGI70Uvfdn2cpXx1oQWU3tQPFuIzLHOCs"
        }
      ],
      "services": {
        "appinvite_service": {
          "other_platform_oauth_client": [
            {
              "client_id": "306156687042-pt3ebf7satqr35tplt2muqk78a9slqeb.apps.googleusercontent.com",
              "client_type": 3
            }
          ]
        }
      }
    }
  ],
  "configuration_version": "1"
}